{
                "Personal_details":
                   {
                       "name"  : "Sayyab",
                        "age"  : "22"
                         },

                "Father_details": {
                  "Fathername": "Sayyab",
                  "Fatherage": "64"
                }

}